id,name,model_id:id,group_id:id,perm_read,perm_write,perm_create,perm_unlink
access_project_timesheet_forecast_report_analysis_manager,project.timesheet.forecast.report.analysis,model_project_timesheet_forecast_report_analysis,project.group_project_manager,1,1,1,1
access_project_timesheet_forecast_report_analysis_user,project.timesheet.forecast.report.analysis,model_project_timesheet_forecast_report_analysis,project.group_project_user,1,0,1,0
