id,name,model_id:id,group_id:id,perm_read,perm_write,perm_create,perm_unlink
access_project_forecast,project.forecast,model_project_forecast,project.group_project_user,1,0,0,0
access_project_forecast_manager,project.forecast,model_project_forecast,project.group_project_manager,1,1,1,1
